<?xml version="1.0" encoding="utf-8"?>
<!-- Generator: Adobe Illustrator 16.0.3, SVG Export Plug-In . SVG Version: 6.00 Build 0)  -->
<!DOCTYPE svg PUBLIC "-//W3C//DTD SVG 1.1//EN" "http://www.w3.org/Graphics/SVG/1.1/DTD/svg11.dtd">
<svg version="1.1" id="Capa_1" xmlns="http://www.w3.org/2000/svg" xmlns:xlink="http://www.w3.org/1999/xlink" x="0px" y="0px"
	 width="500px" height="320px" viewBox="0 0 500 320" style="enable-background:new 0 0 500 320;" xml:space="preserve">
<g>
	<path style="fill:#FFFFFF;" d="M250.002,0.003C161.765,0.003,90,71.767,90,160.001c0,88.228,71.77,159.997,160.009,159.997
		c88.222,0,159.991-71.77,159.991-159.997C409.995,71.767,338.225,0.003,250.002,0.003z M206.262,129.586l0.324-0.358
		c1.304-0.951,1.94-2.431,1.702-3.984c-3.228-19.389-1.11-27.473-0.399-29.499c5.635-17.282,23.305-25.281,26.777-26.691
		c0.74-0.291,2.101-0.706,3.483-0.916l0.41-0.091l2.846-0.154l0.022,0.177l0.655-0.062c0.592-0.062,1.15-0.148,1.85-0.291
		l0.627-0.137c0.558,0.006,7.44,0.876,17.658,4.013l7.104,2.448c12.99,3.836,18.974,10.981,20.078,12.415
		c10.401,11.79,7.623,29.583,5.037,39.141c-0.291,1.127-0.119,2.289,0.523,3.251l0.592,0.729c0.758,1.024,1.43,4.975-0.832,13.372
		c-0.427,2.545-1.365,4.616-2.767,6.017c-0.522,0.569-0.875,1.292-1.013,2.101c-3.513,20.619-21.989,43.679-41.458,43.679
		c-16.52,0-35.379-21.223-38.772-43.662c-0.13-0.843-0.479-1.576-1.064-2.209c-1.417-1.457-2.312-3.569-2.858-6.695
		C205.158,136.285,204.987,131.555,206.262,129.586z M169.176,218.99c0.717-0.911,4.708-5.59,12.792-8.67
		c7.104-2.187,24.66-8.016,34.262-14.978c0.45-0.245,0.894-0.707,1.258-1.088c0.888-0.957,2.249-2.407,3.854-3.912l0.894-0.848
		l0.911,0.854c8.454,7.976,17.812,12.348,26.338,12.348c8.966,0,18.216-3.883,26.755-11.231l0.672-0.58l1.811,0.884
		c1.615,1.484,4.422,3.522,5.725,4.148l1.662,0.809l-0.17,0.184l0.74,0.449c1.571,0.951,3.284,1.873,5.305,2.869
		c2.033,0.895,3.729,1.562,5.494,2.135c1.479,0.479,9.381,3.138,18.369,7.294l1.713,0.512c8.783,3.364,12.688,8.038,13.08,8.526
		c10.424,15.461,14.432,44.305,15.916,60.381c-27.242,22.126-61.519,34.309-96.543,34.309c-35.048,0-69.329-12.187-96.561-34.313
		C154.912,263.045,158.878,234.287,169.176,218.99z M337.309,214.242l-0.553-0.643c-2.596-3.233-8.307-7.793-16.611-10.976
		l-1.309-0.394c-8.311-3.832-15.842-6.442-18.699-7.389l-0.224,0.655l0,0l0.058-0.706c-1.793-0.598-3.272-1.223-4.572-1.793
		c-9.467-4.65-10.672-7.359-10.877-7.986l-0.473-1.074l0.415-0.979c7.116-8.88,12.107-19.224,14.021-28.969l0.238-0.592
		c2.006-2.505,3.269-5.465,3.77-8.71c2.254-8.157,2.361-14.163,0.318-18.348l-0.194-0.426l0.108-0.466
		c2.526-10.564,4.953-30.375-7.18-44.145c-1.918-2.425-9.266-10.633-23.788-14.886l-7.06-2.425
		c-11.742-3.616-19.086-4.399-20.042-4.406l0,0c-0.791,0-1.452,0.075-2.448,0.307l-0.934,0.159c-0.49-0.075-1.024-0.115-1.587-0.115
		c-3.75,0-7.816,1.623-8.009,1.691c-4.064,1.702-24.722,11.237-31.263,31.479c-1.075,2.863-3.302,11.613-0.444,30.768l0.091,0.541
		l-0.335,0.45c-2.938,3.94-3.166,10.348-0.707,18.961c0.621,3.814,1.868,6.86,3.717,9.171l0.318,0.683
		c1.788,10.007,6.244,19.906,12.882,28.615l0.574,0.775l-0.523,0.779c-0.285,0.397-0.49,0.842-0.558,1.16
		c-1.64,4.662-19.952,12.836-36.022,17.749c-11.743,4.439-16.714,11.546-16.714,11.546c-9.955,14.776-14.515,39.641-16.605,58.409
		c-31.473-29.021-49.473-70.021-49.473-112.716C96.615,75.425,165.42,6.62,250.004,6.62c84.572,0,153.389,68.805,153.389,153.378
		c0,42.697-18.026,83.718-49.502,112.756C351.75,253.846,347.139,228.879,337.309,214.242z"/>
</g>
</svg>
